"Marca temporal","¿Cuantos años tienes?","¿Sexo?","¿Cuántas veces te cepillas los dientes al día?","¿Cuál es el tipo de alimentos que más ingieres?","¿Cuántas veces asistes a una consulta odontológica? (Tutor)","¿Cuál es el grado de la caries dental observada en el niño?","¿Tiene encías saludables?","¿Presenta Halitosis?","¿Cuáles son los elementos de higiene oral que utilizas con mayor frecuencia?","Tipo de cerdas del cepillo.  (Tutor)","¿Por qué no asistes a la consulta odontológica? (Tutor)","¿Cuántas veces te han aplicado flúor? (Tutor)","¿Cómo consideras que fue el costo de tu tratamiento dental? (Tutor)"
"2022/11/30 10:50:06 a. m. GMT-4","11","Masculino","3 veces al día.","Carbohidratos;Azucares","Dos veces al año","Esmalte","Encías rojas","Leve","Cepillo dental;Pasta dental","Dura","","1 vez al año",""
"2022/11/30 10:54:44 a. m. GMT-4","10","Masculino","3 veces al día.","Proteínas;Granos","Dos veces al año","Esmalte","Encías rojas","Leve","Cepillo dental;Pasta dental","Suave","","1 vez al año",""
"2022/11/30 10:57:17 a. m. GMT-4","9","Masculino","3 veces al día.","Azucares;Proteínas","Una vez año","Esmalte","Encías rojas","Leve","Cepillo dental;Pasta dental","Suave","","1 vez al año",""
"2022/11/30 10:58:49 a. m. GMT-4","11","Masculino","3 veces al día.","Carbohidratos","Una vez año","Esmalte","Encías rojas","Leve","Cepillo dental;Pasta dental","Suave","","1 vez al año",""
"2022/11/30 11:01:43 a. m. GMT-4","9","Masculino","3 veces al día.","Carbohidratos;Proteínas","Ninguna","Dentina","Encías rojas","Leve","Cepillo dental;Pasta dental","Dura","Falta de dinero","Ninguna",""
"2022/11/30 11:03:03 a. m. GMT-4","9","Masculino","3 veces al día.","Azucares;Proteínas","Ninguna","Dentina;Pulpa","Encías rojas","Moderada","Cepillo dental;Pasta dental","Suave","Falta de dinero","Ninguna",""
"2022/11/30 11:04:09 a. m. GMT-4","8","Masculino","2 veces al día","Carbohidratos;Proteínas","Ninguna","Esmalte","Encías rojas","Leve","Cepillo dental;Pasta dental","Media","Falta de dinero","Ninguna",""
"2022/11/30 11:05:35 a. m. GMT-4","12","Femenino","3 veces al día.","Carbohidratos;Proteínas","","Esmalte","Encías rojas","Leve","Cepillo dental;Pasta dental","Dura","Falta de dinero","1 vez al año",""
"2022/11/30 11:08:14 a. m. GMT-4","12","Masculino","2 veces al día","Carbohidratos;Azucares;Proteínas","Ninguna","Esmalte","Encías rojas","Leve","Cepillo dental;Pasta dental","Media","","Ninguna",""
"2022/11/30 11:09:40 a. m. GMT-4","10","Femenino","2 veces al día","Carbohidratos;Proteínas","Una vez año","Esmalte","Encías rojas","Leve","Cepillo dental;Pasta dental","Dura","Falta de dinero","1 vez al año",""
"2022/11/30 11:10:59 a. m. GMT-4","8","Femenino","3 veces al día.","Carbohidratos","Ninguna","Esmalte;Dentina;Pulpa","Encías inflamadas","Moderada","Cepillo dental;Pasta dental","Suave","Falta de dinero","Ninguna",""
"2022/11/30 11:13:21 a. m. GMT-4","10","Femenino","3 veces al día.","Carbohidratos;Azucares;Proteínas","Una vez año","Esmalte","Encías rojas","Leve","Cepillo dental;Pasta dental","Media","Falta de dinero","1 vez al año",""
"2022/11/30 11:24:20 a. m. GMT-4","12","Femenino","2 veces al día","Carbohidratos;Azucares;Proteínas","Dos veces al año","No presenta","Encías saludables","No presenta","Cepillo dental;Pasta dental","Media","","Ninguna",""
"2022/12/01 9:06:45 a. m. GMT-4","12","Masculino","3 veces al día.","Carbohidratos;Proteínas","Dos veces al año","No presenta","Encías saludables","No presenta","Cepillo dental;Pasta dental","Media","Falta de dinero","Ninguna",""
"2022/12/01 9:08:32 a. m. GMT-4","12","Masculino","2 veces al día","Carbohidratos;Proteínas","Dos veces al año","Esmalte","Encías saludables","No presenta","Cepillo dental;Pasta dental","Dura","Falta de dinero","Ninguna",""
"2022/12/01 9:10:18 a. m. GMT-4","12","Masculino","3 veces al día.","Carbohidratos","Una vez año","No presenta","Encías saludables","No presenta","Cepillo dental;Pasta dental","Media","Falta de dinero","1 vez al año",""
"2022/12/01 9:12:11 a. m. GMT-4","12","Masculino","3 veces al día.","Carbohidratos;Proteínas","Ninguna","Esmalte","Encías saludables","Leve","Cepillo dental;Pasta dental","Suave","Falta de dinero","Ninguna",""
"2022/12/01 9:14:43 a. m. GMT-4","12","Masculino","3 veces al día.","Carbohidratos;Azucares;Proteínas","Una vez año","No presenta","Encías saludables","No presenta","Cepillo dental;Pasta dental","Media","Falta de dinero","1 vez al año",""
"2022/12/01 9:18:13 a. m. GMT-4","11","Masculino","3 veces al día.","Carbohidratos;Azucares;Proteínas","Una vez año","No presenta","Encías saludables","No presenta","Cepillo dental;Pasta dental","Media","Falta de dinero","1 vez al año",""
"2022/12/01 9:19:55 a. m. GMT-4","12","Masculino","3 veces al día.","Carbohidratos","Dos veces al año","No presenta","Encías saludables","No presenta","Cepillo dental;Pasta dental","Suave","Falta de dinero","Ninguna",""
"2022/12/01 9:21:37 a. m. GMT-4","12","Masculino","2 veces al día","Carbohidratos","Dos veces al año","Esmalte","Encías saludables","No presenta","Cepillo dental;Pasta dental","Dura","Falta de dinero","Ninguna",""
"2022/12/01 9:23:13 a. m. GMT-4","12","Masculino","3 veces al día.","Carbohidratos;Azucares;Proteínas","Dos veces al año","Esmalte","Encías saludables","No presenta","Cepillo dental;Pasta dental","Dura","Falta de dinero","Ninguna",""
"2022/12/01 9:25:01 a. m. GMT-4","12","Masculino","3 veces al día.","Carbohidratos;Proteínas;Granos","Dos veces al año","No presenta","Encías saludables","No presenta","Cepillo dental;Pasta dental","Media","Falta de dinero","1 vez al año",""
"2022/12/01 9:30:55 a. m. GMT-4","12","Masculino","2 veces al día","Carbohidratos;Proteínas","Una vez año","No presenta","Encías saludables","No presenta","Cepillo dental;Pasta dental","Suave","Falta de dinero","Ninguna",""
"2022/12/01 9:32:30 a. m. GMT-4","12","Masculino","3 veces al día.","Carbohidratos;Azucares;Proteínas","Una vez año","Esmalte","Encías saludables","No presenta","Cepillo dental;Pasta dental","Dura","Falta de dinero","1 vez al año",""
"2022/12/01 9:33:58 a. m. GMT-4","12","Masculino","2 veces al día","Carbohidratos;Azucares;Proteínas","Una vez año","No presenta","Encías saludables","No presenta","Cepillo dental;Pasta dental","Media","Falta de dinero","1 vez al año",""
"2022/12/01 9:35:31 a. m. GMT-4","12","Masculino","2 veces al día","Carbohidratos;Proteínas","Ninguna","Esmalte","Encías saludables","No presenta","Cepillo dental;Pasta dental","Dura","Falta de dinero","Ninguna",""
"2022/12/01 9:37:22 a. m. GMT-4","12","Masculino","2 veces al día","Carbohidratos;Azucares;Granos","Una vez año","No presenta;Esmalte","Encías saludables","No presenta","Cepillo dental;Pasta dental","Dura","Falta de dinero","",""
"2022/12/01 9:39:39 a. m. GMT-4","12","Masculino","2 veces al día","Carbohidratos;Biberón;Proteínas","Una vez año","No presenta","Encías saludables","No presenta","Cepillo dental;Pasta dental","Dura","","",""
"2022/12/01 9:41:16 a. m. GMT-4","12","Masculino","2 veces al día","Carbohidratos;Azucares","Una vez año","No presenta","Encías saludables","No presenta","Cepillo dental;Pasta dental","Dura","Falta de dinero","1 vez al año",""
"2022/12/01 9:42:36 a. m. GMT-4","12","Masculino","3 veces al día.","Carbohidratos;Azucares;Proteínas","Una vez año","No presenta","Encías saludables","No presenta","Cepillo dental;Pasta dental","Dura","Otro","1 vez al año",""
"2022/12/01 9:43:43 a. m. GMT-4","12","Masculino","1 vez al día.","Carbohidratos;Azucares;Proteínas","Una vez año","Esmalte","Encías saludables","No presenta","Cepillo dental;Pasta dental","Media","","1 vez al año",""
"2022/12/01 9:45:20 a. m. GMT-4","12","Masculino","2 veces al día","Carbohidratos;Proteínas","Una vez año","Esmalte","Encías saludables","No presenta","Cepillo dental;Pasta dental","Dura","","1 vez al año",""
"2022/12/01 9:47:43 a. m. GMT-4","12","Masculino","2 veces al día","Carbohidratos;Azucares;Proteínas","Una vez año","No presenta","Encías saludables","No presenta","Cepillo dental;Pasta dental","Dura","","1 vez al año",""
"2022/12/01 9:50:24 a. m. GMT-4","12","Masculino","3 veces al día.","Carbohidratos;Azucares","Una vez año","No presenta","Encías saludables","No presenta","Cepillo dental;Pasta dental","Dura","","1 vez al año",""
"2022/12/01 9:51:58 a. m. GMT-4","12","Masculino","3 veces al día.","Carbohidratos","Una vez año","No presenta","Encías saludables","No presenta","Cepillo dental;Pasta dental","","","1 vez al año",""
"2022/12/01 9:56:16 a. m. GMT-4","12","Masculino","1 vez al día.","Carbohidratos;Azucares;Proteínas","Una vez año","Esmalte","Encías saludables","No presenta","Cepillo dental;Pasta dental","Media","","1 vez al año",""
"2022/12/01 9:58:17 a. m. GMT-4","12","Masculino","2 veces al día","Carbohidratos;Proteínas","Una vez año","No presenta","Encías saludables","No presenta","Cepillo dental;Pasta dental","Dura","","1 vez al año",""
"2022/12/01 9:59:23 a. m. GMT-4","12","Masculino","3 veces al día.","Carbohidratos;Azucares;Proteínas","Ninguna","Esmalte","Encías saludables","No presenta","Cepillo dental;Pasta dental","Dura","","Ninguna",""
"2022/12/01 10:02:29 a. m. GMT-4","12","Masculino","3 veces al día.","Carbohidratos;Proteínas","Dos veces al año","No presenta","Encías saludables","No presenta","Cepillo dental;Pasta dental","Dura","","1 vez al año",""
"2022/12/08 9:55:34 a. m. GMT-4","11","Masculino","2 veces al día","Carbohidratos;Azucares;Proteínas","Ninguna","No presenta","Encías saludables","No presenta","Cepillo dental;Pasta dental","Dura","Miedo al dolor","Ninguna",""
"2022/12/08 9:56:44 a. m. GMT-4","8","Masculino","3 veces al día.","Carbohidratos;Proteínas","Ninguna","Esmalte","Encías saludables","No presenta","Cepillo dental;Pasta dental","Dura","Miedo al dolor","Ninguna",""
"2022/12/08 9:57:55 a. m. GMT-4","10","Masculino","2 veces al día","Carbohidratos;Azucares;Proteínas","Dos veces al año","No presenta","Encías saludables","No presenta","Cepillo dental;Pasta dental","Media","","Ninguna",""
"2022/12/08 9:58:44 a. m. GMT-4","9","Masculino","2 veces al día","Carbohidratos;Biberón;Proteínas","Dos veces al año","Dentina","Encías rojas","No presenta","Cepillo dental;Pasta dental","Dura","","",""
"2022/12/08 10:00:06 a. m. GMT-4","8","Femenino","1 vez al día.","Carbohidratos;Azucares;Proteínas","Una vez año","Esmalte","Encías saludables","No presenta","Cepillo dental;Pasta dental","","","Ninguna",""
"2022/12/08 10:01:08 a. m. GMT-4","8","Femenino","3 veces al día.","Carbohidratos;Azucares;Proteínas","Ninguna","No presenta","Encías saludables","No presenta","Cepillo dental;Pasta dental","Media","","Ninguna",""
"2022/12/08 10:02:05 a. m. GMT-4","9","Masculino","1 vez al día.","Carbohidratos;Azucares;Proteínas","Una vez año","Esmalte","Encías saludables","No presenta","Cepillo dental;Pasta dental","Media","","Ninguna",""
"2022/12/08 10:03:13 a. m. GMT-4","12","Femenino","3 veces al día.","Carbohidratos;Azucares;Proteínas","Ninguna","No presenta","Encías saludables","No presenta","Cepillo dental;Pasta dental","Media","Miedo al dolor","Ninguna",""
"2022/12/08 10:04:26 a. m. GMT-4","8","Femenino","1 vez al día.","Carbohidratos;Azucares;Proteínas","Una vez año","Esmalte","Encías rojas","No presenta","Cepillo dental;Pasta dental","Suave","","Ninguna",""
"2022/12/08 10:05:36 a. m. GMT-4","11","Masculino","3 veces al día.","Carbohidratos;Azucares;Proteínas","Una vez año","Esmalte","Encías saludables","No presenta","Cepillo dental;Pasta dental","Media","","1 vez al año",""
"2022/12/08 10:06:33 a. m. GMT-4","12","Masculino","1 vez al día.","Carbohidratos;Proteínas","Una vez año","No presenta","Encías saludables","No presenta","Cepillo dental;Pasta dental","Media","","1 vez al año",""
"2022/12/08 10:07:23 a. m. GMT-4","8","Masculino","1 vez al día.","Carbohidratos;Azucares;Proteínas","Una vez año","No presenta","Encías saludables","No presenta","Cepillo dental;Pasta dental","Suave","","Ninguna",""
"2022/12/08 10:08:20 a. m. GMT-4","10","Femenino","2 veces al día","Carbohidratos;Azucares;Proteínas","","Esmalte","Encías saludables","No presenta","Cepillo dental;Pasta dental","Media","","1 vez al año",""
"2022/12/08 10:09:21 a. m. GMT-4","12","Femenino","3 veces al día.","Carbohidratos;Azucares;Proteínas","Una vez año","No presenta","Encías saludables","No presenta","Cepillo dental;Pasta dental","Media","","1 vez al año",""
"2022/12/08 10:11:05 a. m. GMT-4","12","Femenino","1 vez al día.","Carbohidratos;Proteínas","Una vez año","Dentina;Pulpa","Encías rojas","Leve","Cepillo dental;Pasta dental","Suave","","1 vez al año",""
"2022/12/08 10:12:20 a. m. GMT-4","11","Masculino","3 veces al día.","Carbohidratos;Proteínas","Una vez año","No presenta","Encías saludables","No presenta","Cepillo dental;Pasta dental","Suave","","1 vez al año",""
"2022/12/08 10:13:38 a. m. GMT-4","12","Masculino","3 veces al día.","Carbohidratos;Azucares;Proteínas","Dos veces al año","No presenta","Encías saludables","No presenta","Cepillo dental;Pasta dental","Suave","","1 vez al año",""
"2022/12/08 10:14:39 a. m. GMT-4","10","Masculino","3 veces al día.","Carbohidratos;Azucares;Proteínas","Ninguna","Dentina","Encías saludables","No presenta","Cepillo dental;Pasta dental","Suave","","Ninguna",""
"2022/12/08 10:15:45 a. m. GMT-4","10","Femenino","3 veces al día.","Carbohidratos;Proteínas","Una vez año","No presenta","Encías rojas","Leve","Cepillo dental;Pasta dental","Media","","1 vez al año",""
"2022/12/08 10:16:52 a. m. GMT-4","11","Masculino","2 veces al día","Carbohidratos;Proteínas","Una vez año","No presenta","Encías saludables","No presenta","Cepillo dental;Pasta dental","Suave","","Ninguna",""
"2022/12/08 10:17:53 a. m. GMT-4","8","Masculino","2 veces al día","Carbohidratos;Proteínas","Ninguna","Dentina","Encías rojas","Leve","Cepillo dental;Pasta dental","Dura","","Ninguna",""
"2022/12/08 10:18:39 a. m. GMT-4","12","Femenino","3 veces al día.","Carbohidratos;Azucares;Proteínas","Dos veces al año","Dentina","Encías saludables","No presenta","Cepillo dental;Pasta dental","Media","","1 vez al año",""
"2022/12/08 10:19:28 a. m. GMT-4","11","Femenino","3 veces al día.","Carbohidratos;Proteínas;Granos","Dos veces al año","No presenta","Encías saludables","No presenta","Cepillo dental;Pasta dental","Media","","2 veces al año",""
"2022/12/08 10:20:42 a. m. GMT-4","10","Masculino","3 veces al día.","Carbohidratos;Proteínas","Dos veces al año","Dentina","Encías saludables","No presenta","Cepillo dental;Pasta dental","Suave","","Ninguna",""
"2022/12/08 10:21:44 a. m. GMT-4","9","Masculino","3 veces al día.","Carbohidratos;Proteínas","Ninguna","Dentina","Encías saludables","No presenta","Cepillo dental;Pasta dental","Suave","","Ninguna",""
"2022/12/08 10:22:40 a. m. GMT-4","10","Masculino","3 veces al día.","Carbohidratos;Azucares;Proteínas","Una vez año","Pulpa","Encías saludables","No presenta","Cepillo dental;Pasta dental","Media","","Ninguna",""
"2022/12/08 10:24:22 a. m. GMT-4","9","Masculino","3 veces al día.","Carbohidratos;Azucares;Proteínas","Una vez año","No presenta","Encías saludables","No presenta","Cepillo dental;Pasta dental","Suave","","1 vez al año",""
"2022/12/08 10:25:12 a. m. GMT-4","11","Masculino","1 vez al día.","Carbohidratos;Azucares;Proteínas","Ninguna","Dentina","Encías rojas","No presenta","Cepillo dental;Pasta dental","Suave","","Ninguna",""
"2022/12/08 10:25:53 a. m. GMT-4","8","Masculino","1 vez al día.","Carbohidratos;Azucares;Proteínas","Una vez año","Esmalte","Encías saludables","No presenta","Cepillo dental;Pasta dental","Suave","","1 vez al año",""
"2022/12/08 10:26:30 a. m. GMT-4","8","Femenino","3 veces al día.","Carbohidratos;Azucares;Proteínas","Una vez año","Esmalte","Encías saludables","No presenta","Cepillo dental;Pasta dental","Suave","","1 vez al año",""
"2022/12/08 10:28:35 a. m. GMT-4","11","Masculino","3 veces al día.","Carbohidratos;Azucares;Proteínas","Ninguna","No presenta","Encías saludables","No presenta","Cepillo dental;Pasta dental","No sabe","","Ninguna",""
"2022/12/08 10:29:36 a. m. GMT-4","8","Masculino","2 veces al día","Carbohidratos;Proteínas","Una vez año","Esmalte","Encías saludables","No presenta","Cepillo dental;Pasta dental","Suave","","Ninguna",""
"2022/12/08 10:31:25 a. m. GMT-4","8","Masculino","3 veces al día.","Carbohidratos;Proteínas","Una vez año","Dentina","Encías saludables","No presenta","Cepillo dental;Pasta dental","Suave","","1 vez al año",""
"2022/12/08 10:32:41 a. m. GMT-4","10","Femenino","2 veces al día","Carbohidratos;Proteínas","Una vez año","No presenta;Esmalte","Encías saludables","No presenta","Cepillo dental;Pasta dental","Media","","Ninguna",""
"2022/12/08 11:04:17 a. m. GMT-4","12","Masculino","2 veces al día","Carbohidratos;Proteínas","Una vez año","No presenta","Encías saludables","No presenta","Cepillo dental;Pasta dental","Suave","","Ninguna",""
"2022/12/08 11:05:30 a. m. GMT-4","11","Masculino","1 vez al día.","Carbohidratos;Proteínas","Ninguna","Esmalte","Encías saludables","No presenta","Cepillo dental;Pasta dental","Dura","","1 vez al año",""
"2022/12/08 11:06:40 a. m. GMT-4","12","Masculino","2 veces al día","Carbohidratos;Proteínas","Dos veces al año","No presenta;Esmalte","Encías saludables","No presenta","Cepillo dental;Pasta dental","Media","","1 vez al año",""
"2022/12/08 11:07:34 a. m. GMT-4","12","Masculino","3 veces al día.","Carbohidratos;Proteínas","Una vez año","Esmalte","Encías saludables","No presenta","Cepillo dental;Pasta dental","Suave","","1 vez al año",""
"2022/12/08 11:38:57 a. m. GMT-4","10","Femenino","3 veces al día.","Proteínas;Granos","Una vez año","Esmalte","Encías saludables","No presenta","Cepillo dental;Pasta dental","Suave","","Ninguna",""
"2022/12/08 11:40:21 a. m. GMT-4","11","Masculino","3 veces al día.","Carbohidratos;Azucares;Proteínas;Granos","Una vez año","Dentina","Encías saludables","No presenta","Cepillo dental;Pasta dental","Media","","Ninguna",""
"2022/12/08 11:41:46 a. m. GMT-4","12","Masculino","3 veces al día.","Carbohidratos;Azucares;Proteínas","Una vez año","Esmalte","Encías saludables","No presenta","Cepillo dental;Pasta dental","Media","","1 vez al año",""
"2022/12/08 11:43:03 a. m. GMT-4","12","Masculino","2 veces al día","Carbohidratos;Azucares;Proteínas","Ninguna","Esmalte","Encías saludables","No presenta","Cepillo dental;Pasta dental","Suave","","1 vez al año",""
"2022/12/09 10:07:34 a. m. GMT-4","11","Femenino","2 veces al día","Carbohidratos;Azucares;Proteínas","Ninguna","Dentina","Encías saludables","No presenta","Cepillo dental;Pasta dental","Media","Miedo al dolor","Ninguna",""
"2022/12/09 10:08:26 a. m. GMT-4","10","Femenino","2 veces al día","Carbohidratos;Azucares;Proteínas","Una vez año","No presenta","Encías saludables","No presenta","Cepillo dental;Pasta dental","Dura","","Ninguna",""
"2022/12/09 10:10:03 a. m. GMT-4","12","Masculino","2 veces al día","Carbohidratos;Azucares;Proteínas","Ninguna","Esmalte","Encías saludables","No presenta","Cepillo dental;Pasta dental","Suave","","Ninguna",""
"2022/12/09 10:10:50 a. m. GMT-4","11","Femenino","3 veces al día.","Carbohidratos;Azucares;Proteínas","Ninguna","No presenta","Encías saludables","No presenta","Cepillo dental;Pasta dental","Dura","","Ninguna",""
"2022/12/09 10:11:27 a. m. GMT-4","9","Femenino","3 veces al día.","Carbohidratos;Azucares;Proteínas","Ninguna","Dentina","Encías rojas","Leve","Cepillo dental;Pasta dental","Dura","","Ninguna",""
"2022/12/09 10:12:29 a. m. GMT-4","12","Femenino","3 veces al día.","Carbohidratos;Azucares;Proteínas","Ninguna","No presenta","Encías saludables","No presenta","Cepillo dental;Pasta dental","Suave","","Ninguna",""
"2022/12/09 10:13:11 a. m. GMT-4","10","Femenino","1 vez al día.","Carbohidratos;Azucares;Proteínas","Ninguna","Dentina","Encías saludables","No presenta","Cepillo dental;Pasta dental","Media","","Ninguna",""
"2022/12/09 10:13:49 a. m. GMT-4","10","Masculino","3 veces al día.","Carbohidratos;Azucares;Proteínas","Dos veces al año","No presenta","Encías saludables","No presenta","Cepillo dental;Pasta dental","Media","","Ninguna",""
"2022/12/09 10:14:32 a. m. GMT-4","8","Femenino","2 veces al día","Carbohidratos;Biberón;Proteínas","Ninguna","Dentina;Pulpa","Encías rojas","No presenta","Cepillo dental;Pasta dental","Suave","","Ninguna",""
"2022/12/09 10:27:31 a. m. GMT-4","12","Masculino","2 veces al día","Carbohidratos;Azucares;Proteínas","Ninguna","No presenta","Encías saludables","No presenta","Cepillo dental;Pasta dental","Suave","","1 vez al año",""
"2022/12/09 10:28:20 a. m. GMT-4","10","Masculino","1 vez al día.","Carbohidratos;Azucares;Proteínas","Ninguna","Dentina","Encías saludables","No presenta","Cepillo dental;Pasta dental","Media","","Ninguna",""
"2022/12/09 10:43:16 a. m. GMT-4","12","Femenino","3 veces al día.","Carbohidratos;Azucares;Proteínas","Dos veces al año","No presenta","Encías saludables","No presenta","Cepillo dental;Pasta dental","Media","","Ninguna",""
"2022/12/09 10:43:55 a. m. GMT-4","10","Masculino","2 veces al día","Carbohidratos;Azucares;Proteínas","Ninguna","No presenta","Encías saludables","No presenta","Cepillo dental;Pasta dental","Media","","Ninguna",""
"2022/12/09 10:44:57 a. m. GMT-4","12","Masculino","1 vez al día.","Carbohidratos;Azucares;Proteínas","Ninguna","Dentina","Encías saludables","No presenta","Cepillo dental;Pasta dental","Media","","1 vez al año",""