edad,sexo,universidad,nombre completo
19,M,UPDS,Marco Antelo
21,M,UPDS,Marcelo Yugar
17,M,UPDS,Antonio Peredo
27,F,UAGRM,Ana Torrico
23,M,UPDS,Pedro
36,M,UPDS,Saul
40,M,UPDS,Fernando
33,M,UPDS,Alex
19,F,UPSA,Bertha
31,M,UPDS,Mauricio
21,M,UPDS,Carlos
29,M,UPDS,Jairo
32,M,UPDS,Alfredo
18,M,UPDS,Efrain
